{
  "ID": "Automatic Threshold (3D)",
  "Description": "Creates a binary mask from the foreground region of the data, which is defined by whether the pixel value or intensity meets the threshold criteria or not. The criteria can be either a lower-limit or an upper-limit threshold. The threshold value is determined by an algorithm and can be tunned by additional inputs. For 3D data.",
  "Category": "Segmentation",
  "License": "Internal",
  "InputList": [
    {
      "ID": "InputImage",
      "Flags": [
        "Volume3D"
      ]
    }
  ],
  "OutputList": [
    {
      "ID": "OutputMask",
      "Flags": [
        "Volume3D",
        "Binary"
      ]
    }
  ],
  "AttrList": [
    {
      "ID": "Foreground",
      "Description": "Target brightness to detect. Bright: high values on a dark background. Dark: low values on a bright background.",
      "Category": "StringCombo",
      "IsAsync": false
    },
    {
      "ID": "Algorithm",
      "Description": "Thresholding algorithm to use",
      "Category": "StringCombo",
      "IsAsync": false
    },
    {
      "ID": "Threshold offset",
      "Description": "Offset value to be added to the calculated threshold",
      "Category": "Double",
      "IsAsync": true
    },
    {
      "ID": "Threshold scale",
      "Description": "Scale value to be multiplied to the calculated threshold",
      "Category": "Double",
      "IsAsync": true
    }
  ]
}