{
  "ID": "Opening XY (3D)",
  "Description": "Performs the opening in the XY directions using a 2D structuring element. For 3D data. The process successively runs the erosion and the dilation processes with the same structuring element.",
  "Category": "MorphOp",
  "License": "Internal",
  "InputList": [
    {
      "ID": "InputMask",
      "Flags": [
        "Volume3D",
        "Binary"
      ]
    }
  ],
  "OutputList": [
    {
      "ID": "OutputMask",
      "Flags": [
        "Volume3D",
        "Binary"
      ]
    }
  ],
  "AttrList": [
    {
      "ID": "Kernel Radius",
      "Description": "Set erosion kernel size.",
      "Category": "Integer",
      "IsAsync": false
    },
    {
      "ID": "Neighborhood",
      "Description": "The 2D neighborhood configuration defining the connected components.",
      "Category": "StringCombo",
      "IsAsync": false
    },
    {
      "ID": "Border Policy",
      "Description": "How to handle pixel located at the border",
      "Category": "StringCombo",
      "IsAsync": false
    }
  ]
}