{
  "ID": "TopHatFilter XY (2D)",
  "Description": "Computes 2D TopHat Image.",
  "Category": "Filtering",
  "License": "Internal",
  "InputList": [
    {
      "ID": "InputImage",
      "Flags": [
        "Volume2D"
      ]
    }
  ],
  "OutputList": [
    {
      "ID": "OutputImage",
      "Flags": [
        "Volume2D"
      ]
    }
  ],
  "AttrList": [
    {
      "ID": "Kernel Radius",
      "Description": "The kernel half side length or radius.",
      "Category": "Integer",
      "IsAsync": false
    },
    {
      "ID": "Object Lightness",
      "Description": "The lightness of objects to detect.",
      "Category": "StringCombo",
      "IsAsync": false
    }
  ]
}
