{
  "ID": "Median XY (3D)",
  "Description": "Makes the image smoother by taking its regional median value of each voxel. The region is defined by the structuring element of a 2D form. For 3D data.",
  "Category": "Smoothing",
  "License": "Internal",
  "InputList": [
    {
      "ID": "InputImage",
      "Flags": [
        "Volume3D"
      ]
    }
  ],
  "OutputList": [
    {
      "ID": "OutputImage",
      "Flags": [
        "Volume3D"
      ]
    }
  ],
  "AttrList": [
    {
      "ID": "Kernel Radius",
      "Description": "The half size of the structuring element.",
      "Category": "Integer",
      "IsAsync": false
    },
    {
      "ID": "Kernel Mode",
      "Description": "The structuring element shape and application mode.",
      "Category": "StringCombo",
      "IsAsync": false
    },
    {
      "ID": "Search Mode",
      "Description": "Handles all types of method for finding the median.",
      "Category": "StringCombo",
      "IsAsync": false
    }
  ]
}