{
  "Name": "Exclude on edges",
  "FullName": "org.tomocube.algorithm.filtering.borderkill",
  "Description": "Kill border-adjacent labels",
  "Input": [
    {
      "Type": "Mask",
      "DataType": "Label",
      "Dimension": 3
    }
  ],
  "Output": [
    {
      "Type": "Mask",
      "DataType": "Label",
      "Dimension": 3
    }
  ]
}