{
  "ID": "Reorder labels (3D)",
  "Description": "Reorders the labels of the objects in the label mask so that they are consecutive. For 3D data.",
  "Category": "Labeling",
  "License": "Internal",
  "InputList": [
    {
      "ID": "InputMask",
      "Flags": [
        "Volume3D",
        "Label"
      ]
    }
  ],
  "OutputList": [
    {
      "ID": "OutputMask",
      "Flags": [
        "Volume3D",
        "Label"
      ]
    }
  ],
  "AttrList": [
  ]
}