<svg width="16" height="16" viewBox="0 0 16 16" xmlns="http://www.w3.org/2000/svg">
    <g fill="none" fill-rule="evenodd">
        <path d="M0 0h16v16H0z"/>
        <path d="M12.995 11.159c0-.446.1-2.207-1.361-3.608-.969-.925-2.203-1.402-3.917-1.488a.094.094 0 0 1-.091-.091v-1.88c0-.073-.084-.116-.149-.078L3.043 7.247a.089.089 0 0 0 0 .152l4.434 3.233c.065.04.149-.003.149-.078V8.7c0-.052.046-.093.1-.09 1.058.038 1.667.247 2.328.527.865.368 1.748 1.157 2.265 1.898.314.452.46.77.513.902a.106.106 0 0 0 .098.064H13c-.002-.266-.005-.607-.005-.841z" fill="#FFF" fill-rule="nonzero"/>
    </g>
</svg>
