<svg width="24" height="24" viewBox="0 0 24 24" xmlns="http://www.w3.org/2000/svg" xmlns:xlink="http://www.w3.org/1999/xlink">
    <defs>
        <linearGradient x1="50%" y1="2.03%" x2="50%" y2="100%" id="5fbn8tqq2c">
            <stop stop-color="#FFF" stop-opacity="0" offset="0%"/>
            <stop stop-color="#FFF" offset="96.178%"/>
        </linearGradient>
        <path d="M24 0v24H0V0h24zm-1 10H1v4h22v-4z" id="uqruha5zya"/>
    </defs>
    <g fill="none" fill-rule="evenodd">
        <path d="M4.8 0h14.4A4.8 4.8 0 0 1 24 4.8v14.4a4.8 4.8 0 0 1-4.8 4.8H4.8A4.8 4.8 0 0 1 0 19.2V4.8A4.8 4.8 0 0 1 4.8 0z" fill="#27A2BF"/>
        <g>
            <mask id="beyr6rf77b" fill="#fff">
                <use xlink:href="#uqruha5zya"/>
            </mask>
            <g mask="url(#beyr6rf77b)" stroke="#FFF">
                <path d="M1.98 0h10.04A1.98 1.98 0 0 1 14 1.98V8H0V1.98A1.98 1.98 0 0 1 1.98 0z" fill="url(#5fbn8tqq2c)" transform="translate(5 4)"/>
                <path d="M5 12h14v6.02A1.98 1.98 0 0 1 17.02 20H6.98A1.98 1.98 0 0 1 5 18.02V12z" stroke-dasharray="1.583999991416931,0.9900000214576722"/>
            </g>
        </g>
        <path d="M3 12.161h18" stroke="#FFF" stroke-linecap="round" stroke-linejoin="round" stroke-width="2"/>
    </g>
</svg>
