{
  "ID": "ROICookieCutter",
  "Category": "Simple",
  "Port": [
    {
      "Name": "List of Images",
      "DataFlags": [
        "Volume2D",
        "Volume3D",
        "HT",
        "FL"
      ]
    },   
    {
      "Name": "OutputPort",
      "DataFlags": [
        "Volume2D",
        "Volume3D",
        "HT",
        "FL"
      ]
    }
  ]
}