{
  "ID": "Dilation XY (3D)",
  "Description": "Dilates the binary mask in the XY directions using a 2D structuring element. For 3D data.",
  "Category": "MorphOp",
  "License": "Internal",
  "InputList": [
    {
      "ID": "InputMask",
      "Flags": [
        "Volume3D",
        "Binary"
      ]
    }
  ],
  "OutputList": [
    {
      "ID": "OutputMask",
      "Flags": [
        "Volume3D",
        "Binary"
      ]
    }
  ],
  "AttrList": [
    {
      "ID": "Kernel Radius",
      "Description": "Set dilation kernel size.",
      "Category": "Integer",
      "IsAsync": false
    },
    {
      "ID": "Neighborhood",
      "Description": "The 2D neighborhood configuration defining the connected components.",
      "Category": "StringCombo",
      "IsAsync": false
    }
  ]
}