{
  "Name": "Closing 2D",
  "FullName": "org.tomocube.algorithm.morphop.closing.2d",
  "Description": "Closing 2D engine",
  "Input": [
    {
      "Type": "Mask",
      "DataType": "Binary",
      "Dimension": 2
    }
  ],
  "Output": [
    {
      "Type": "Mask",
      "DataType": "Binary",
      "Dimension": 2
    }
  ]
}