{
  "ID": "Stardist segmentation XY (2D)",
  "Description": "Perform star-shape segmentation using stardist AI model. For 2D data.",
  "Category": "AI",
  "License": "Internal",
  "InputList": [
    {
      "ID": "InputImage",
      "Flags": [
        "Volume2D"
      ]
    }
  ],
  "OutputList": [
    {
      "ID": "OutputMask",
      "Flags": [
        "Volume2D",
        "Label"
      ]
    }
  ],
  "AttrList": [
    {
      "ID": "Stardist home",
      "Description": "Root directory for python environment associated with Stardist",
      "Category": "Directory",
      "IsAsync": false
    },
    {
      "ID": "Stardist model",
      "Description": "Default models provided by Stardist",
      "Category": "StringCombo",
      "IsAsync": false
    },
    {
      "ID": "Custom model directory",
      "Description": "Directory path for custom Stardist model",
      "Category": "Directory",
      "IsAsync": false
    }
  ]
}