{
  "ID": "Gaussian (2D)",
  "Description": "Makes the image smoother using a gaussian filter in the XY directions. For 2D data.",
  "Category": "Smoothing",
  "License": "Internal",
  "InputList": [
    {
      "ID": "InputImage",
      "Flags": [
        "Volume2D"
      ]
    }
  ],
  "OutputList": [
    {
      "ID": "OutputImage",
      "Flags": [
        "Volume2D"
      ]
    }
  ],
  "AttrList": [
    {
      "ID": "Standard Deviation X",
      "Description": "Standard Deviation Factor X.",
      "Category": "Double",
      "IsAsync": false
    },
    {
      "ID": "Standard Deviation Y",
      "Description": "Standard Deviation Factor Y.",
      "Category": "Double",
      "IsAsync": false
    }
  ]
}