<?xml version="1.0" encoding="utf-8"?>
<svg id="_이어_1" viewBox="0 0 24 24" xmlns="http://www.w3.org/2000/svg">
  <defs>
    <style>.cls-1,.cls-2{stroke-width:.96px;}.cls-1,.cls-2,.cls-3{stroke:#fff;}.cls-1,.cls-2,.cls-3,.cls-4{stroke-linecap:round;stroke-linejoin:round;}.cls-1,.cls-3{fill:#fff;}.cls-2{fill:none;}.cls-5{opacity:.2;}.cls-3{stroke-width:.77px;}.cls-4{fill:#00c2d3;stroke:#00c2d3;stroke-width:.78px;}</style>
  </defs>
  <g class="cls-5">
    <path class="cls-1" d="M16.4,4.9l-2-2H6.3c-.6,0-1,.4-1,1V20c0,.6,.4,1,1,1h11.8c.6,0,1-.4,1-1V7.7h0c-1.4-1.5-1.7-1.7-2.7-2.8Z"/>
    <line class="cls-2" x1="14.4" y1="2.9" x2="19.1" y2="7.7"/>
  </g>
  <g>
    <path class="cls-2" d="M14.4,6.7V2.9H6.3c-.6,0-1,.4-1,1V20c0,.6,.4,1,1,1h11.8c.6,0,1-.4,1-1V7.7h-3.7c-.5,0-1-.4-1-1Z"/>
    <line class="cls-2" x1="14.4" y1="2.9" x2="19.1" y2="7.7"/>
  </g>
</svg>