{
  "Name": "Gradient Operator 2D",
  "FullName": "org.tomocube.algorithm.edgedetection.gradientoperator.3d",
  "Description": "Gradient operator 3D engine",
  "Input": [
    {
      "Type": "Image",
      "DataType": "Grayscale",
      "Dimension": 3
    }
  ],
  "Output": [
    {
      "Type": "Image",
      "Dimension": 3
    }
  ]
}