<svg width="24" height="24" viewBox="0 0 24 24" xmlns="http://www.w3.org/2000/svg">
    <g fill="none" fill-rule="evenodd">
        <path d="M0 0h24v24H0z"/>
        <path d="M10.824 3a7.824 7.824 0 1 1 0 15.647 7.824 7.824 0 0 1 0-15.647zm3.352 6.706H7.471l-.13.007a1.118 1.118 0 0 0 .13 2.228h6.705l.13-.007a1.118 1.118 0 0 0-.13-2.228z" fill="#00C2D3"/>
        <path stroke="#FFF" stroke-width="1.8" stroke-linecap="round" stroke-linejoin="round" d="m21 21-3.536-3.536"/>
    </g>
</svg>
