{
  "ID": "Logic - Invert (2D)",
  "Description": "Creates a negated mask by inverting the binary mask. For 2D data.",
  "Category": "Logic",
  "License": "Internal",
  "InputList": [
    {
      "ID": "InputMask",
      "Flags": [
        "Volume2D",
        "Binary"
      ]
    }
  ],
  "OutputList": [
    {
      "ID": "OutputMask",
      "Flags": [
        "Volume2D",
        "Binary"
      ]
    }
  ],
  "AttrList": [
  ]
}