{
  "ID": "Export image data as TIFF (3D)",
  "Description": "Saves an image data in TIFF format. For 3D data.",
  "License": "Internal",
  "Category": "Export",
  "InputList": [
    {
      "ID": "InputImage",
      "Category": "Image3D"
    }
  ],
  "OutputList": [
    {
      "ID": "File",
      "Category": "Unknown"
    }
  ],
  "AttrList": [
    {
      "ID": "OutputPath",
      "Category": "Directory",
      "IsAsync": false
    }
  ]
}