{
  "ID": "RegionalMaxima XY (2D)",
  "Description": "Create 2D binary mask by applying regional maxima algorithm to given image.",
  "Category": "Segmentation",
  "License": "Internal",
  "InputList": [
    {
      "ID": "InputImage",
      "Flags": [
        "Volume2D"
      ]
    }
  ],
  "OutputList": [
    {
      "ID": "OutputMask",
      "Flags": [
        "Volume2D",
        "Binary"
      ]
    }
  ],
  "AttrList": [
    {
      "ID": "Neighborhood",
      "Description": "The neighborhood configuration defining the connected components.",
      "Category": "StringCombo",
      "IsAsync": false
    }
  ]
}