<svg width="24" height="24" viewBox="0 0 24 24" xmlns="http://www.w3.org/2000/svg">
    <g fill-rule="nonzero" fill="none">
        <path d="M18.667 13.875c.313 0 .573.231.618.533l.007.092v3.333a.625.625 0 0 1-1.244.093l-.006-.093v-1.672a7.376 7.376 0 0 1-9.348 2.327l.94-.942a6.126 6.126 0 0 0 7.596-2.42l-1.897-.001a.625.625 0 0 1-.618-.533l-.007-.092c0-.314.232-.574.533-.618l.092-.007h3.334zM5.952 12.747a6.12 6.12 0 0 0 .474 1.655l-.935.935a7.362 7.362 0 0 1-.777-2.418.625.625 0 0 1 1.238-.172zm13.334-1.666a.625.625 0 0 1-1.238.172 6.12 6.12 0 0 0-.473-1.654l.934-.935c.39.74.657 1.553.777 2.417zm-6.361-6.3c.848.11 1.651.362 2.383.732l-.94.941a6.126 6.126 0 0 0-7.597 2.42l1.896.001c.313 0 .573.231.618.533l.007.092a.625.625 0 0 1-.533.618l-.092.007H5.333a.625.625 0 0 1-.618-.533L4.708 9.5V6.167a.625.625 0 0 1 1.244-.093l.006.093v1.672a7.376 7.376 0 0 1 6.967-3.058z" fill="#FFF"/>
        <path d="M19.47 3.47a.75.75 0 0 1 1.133.976l-.073.084-16 16a.75.75 0 0 1-1.133-.976l.073-.084 16-16z" fill="#D55C56"/>
    </g>
</svg>
